<svg width="64" height="64" viewBox="0 0 64 64" fill="none" xmlns="http://www.w3.org/2000/svg">
<path d="M51.4011 26.1626C51.8327 26.1799 52.2409 26.3634 52.5401 26.6748C52.8395 26.9862 53.0066 27.4014 53.0066 27.8333C53.0066 28.2652 52.8395 28.6803 52.5401 28.9918C52.2409 29.3032 51.8327 29.4867 51.4011 29.5039H46.7509V32.4848H51.4011C51.6258 32.4759 51.85 32.5124 52.0601 32.5921C52.2703 32.672 52.4622 32.7934 52.6243 32.9492C52.7864 33.105 52.9153 33.2919 53.0034 33.4987C53.0916 33.7055 53.1369 33.928 53.1369 34.1528C53.1369 34.3776 53.0916 34.6002 53.0034 34.807C52.9153 35.0138 52.7864 35.2007 52.6243 35.3565C52.4622 35.5122 52.2703 35.6336 52.0601 35.7135C51.85 35.7933 51.6258 35.8298 51.4011 35.8208H45.079C44.6384 35.818 44.2165 35.6413 43.9054 35.3292C43.5943 35.0172 43.419 34.5948 43.4176 34.1541V21.5124C43.4176 20.5984 44.1649 19.8432 45.0869 19.8432H51.4091C51.8518 19.8442 52.276 20.0211 52.5883 20.3349C52.9007 20.6487 53.0755 21.0737 53.0744 21.5164C53.0734 21.9591 52.8965 22.3833 52.5827 22.6956C52.2689 23.008 51.8439 23.1828 51.4011 23.1817H46.7509V26.1626H51.4011ZM41.1866 34.1541C41.1845 34.596 41.0073 35.0189 40.6939 35.3303C40.3805 35.6418 39.9564 35.8162 39.5147 35.8155C39.2528 35.8212 38.9935 35.764 38.7583 35.6487C38.5232 35.5335 38.3192 35.3635 38.1633 35.1531L31.6901 26.364V34.1541C31.6609 34.576 31.4728 34.971 31.1637 35.2595C30.8546 35.5479 30.4475 35.7083 30.0248 35.7083C29.602 35.7083 29.1949 35.5479 28.8858 35.2595C28.5767 34.971 28.3886 34.576 28.3595 34.1541V21.5124C28.3587 21.0728 28.5324 20.6507 28.8422 20.3388C29.1522 20.0269 29.5731 19.8506 30.0129 19.8484C30.5295 19.8484 31.0065 20.124 31.3244 20.5215L37.848 29.3449V21.5124C37.848 20.5984 38.5952 19.8432 39.5173 19.8432C40.4314 19.8432 41.1866 20.5984 41.1866 21.5124V34.1541ZM25.9747 34.1541C25.9726 34.5965 25.7957 35.02 25.4823 35.3322C25.1691 35.6445 24.745 35.8202 24.3028 35.8208C23.8621 35.818 23.4404 35.6413 23.1292 35.3292C22.8181 35.0172 22.6428 34.5948 22.6414 34.1541V21.5124C22.6414 20.5984 23.3886 19.8432 24.3107 19.8432C25.2274 19.8432 25.9747 20.5984 25.9747 21.5124V34.1541ZM19.4405 35.8208H13.1184C12.677 35.818 12.2544 35.6416 11.942 35.3298C11.6297 35.0178 11.4525 34.5955 11.4491 34.1541V21.5124C11.4491 20.5984 12.2043 19.8432 13.1184 19.8432C14.0405 19.8432 14.7877 20.5984 14.7877 21.5124V32.4848H19.4405C19.8714 32.502 20.2789 32.6853 20.5777 32.9962C20.8765 33.3071 21.0433 33.7216 21.0433 34.1528C21.0433 34.584 20.8765 34.9985 20.5777 35.3095C20.2789 35.6204 19.8714 35.8036 19.4405 35.8208ZM63.6825 27.3577C63.6825 13.1262 49.4139 1.54439 31.8861 1.54439C14.3585 1.54439 0.0898438 13.1262 0.0898438 27.3577C0.0898438 40.1054 11.404 50.7863 26.6795 52.816C27.7156 53.0332 29.1252 53.4995 29.4829 54.3792C29.8008 55.1768 29.6922 56.409 29.5836 57.241L29.1491 59.9436C29.0298 60.7412 28.5131 63.0862 31.9285 61.6527C35.3493 60.2245 50.2539 50.8473 56.9311 43.1711C61.4991 38.1658 63.6825 33.0387 63.6825 27.3577Z" fill="white"/>
</svg>
