<svg width="64" height="64" viewBox="0 0 64 64" fill="none" xmlns="http://www.w3.org/2000/svg">
<path d="M32.5803 0C15.2292 0 1.16199 13.9573 1.16199 31.1761C1.16199 37.066 2.80942 42.5746 5.67044 47.2742L0 64L17.3948 58.474C21.896 60.9433 27.0727 62.352 32.5803 62.352C49.9335 62.352 64 48.3928 64 31.1761C64 13.9573 49.9335 0 32.5803 0ZM48.2034 43.0157C47.4642 44.8481 44.1214 46.5204 42.6464 46.5975C41.1729 46.6756 41.131 47.7395 33.0978 44.2498C25.0657 40.7592 20.2333 32.272 19.8523 31.7254C19.471 31.1808 16.7408 27.2902 16.8881 23.3747C17.0364 19.4586 19.1805 17.611 19.9458 16.8426C20.7103 16.073 21.5867 15.9352 22.1218 15.9264C22.7544 15.9162 23.1641 15.9076 23.6323 15.9249C24.1 15.9426 24.8025 15.827 25.4108 17.4448C26.0189 19.0623 27.4741 23.0381 27.6603 23.4432C27.8463 23.8488 27.9614 24.3183 27.6749 24.8391C27.3874 25.3609 27.2403 25.6869 26.8232 26.1366C26.404 26.5863 25.9413 27.1426 25.5672 27.4864C25.1501 27.8671 24.7144 28.2824 25.153 29.0963C25.5913 29.9096 27.1034 32.5758 29.4071 34.7729C32.3678 37.5974 34.9211 38.5342 35.7068 38.961C36.4947 39.3902 36.9648 39.3425 37.4534 38.8283C37.9397 38.3142 39.5447 36.5788 40.11 35.8042C40.675 35.0273 41.2044 35.1794 41.9303 35.4715C42.6557 35.7646 46.5241 37.8366 47.3121 38.2645C48.0992 38.6915 48.6254 38.9115 48.8135 39.2502C49.0017 39.5901 48.9422 41.1831 48.2034 43.0157Z" fill="white"/>
</svg>
