<svg width="10" height="10" viewBox="0 0 10 10" fill="none" xmlns="http://www.w3.org/2000/svg">
<path d="M0 0V10H10V0H0ZM5.44214 7.79893C5.44214 8.77214 4.87071 9.21643 4.03821 9.21643C3.28607 9.21643 2.85071 8.82821 2.6275 8.35714L3.39321 7.895C3.54071 8.15607 3.67464 8.37714 3.99821 8.37714C4.30607 8.37714 4.5025 8.25643 4.5025 7.78571V4.59143H5.44214V7.79893ZM7.665 9.21643C6.79214 9.21643 6.2275 8.80143 5.95286 8.25643L6.71857 7.81464C6.91964 8.14286 7.18286 8.38607 7.645 8.38607C8.03321 8.38607 8.28357 8.19179 8.28357 7.92179C8.28357 7.60036 8.02893 7.48643 7.59821 7.29679L7.36393 7.19643C6.68536 6.90857 6.23679 6.54464 6.23679 5.77893C6.23679 5.07357 6.77464 4.53786 7.61179 4.53786C8.21 4.53786 8.63857 4.74536 8.94679 5.29L8.21464 5.75893C8.05393 5.47107 7.87964 5.35714 7.60964 5.35714C7.33536 5.35714 7.16107 5.53143 7.16107 5.75893C7.16107 6.04036 7.33536 6.15393 7.73929 6.33036L7.97357 6.43071C8.77286 6.77214 9.22143 7.12286 9.22143 7.90821C9.22143 8.75214 8.55571 9.21643 7.665 9.21643Z" fill="#171717"/>
</svg>
