{
  "type": "service_account",
  "project_id": "farizio-portofolio",
  "private_key_id": "f9eaa626bfc107b1abb1bd03b14a6539ae304316",
  "private_key": "-----BEGIN PRIVATE KEY-----\nMIIEvQIBADANBgkqhkiG9w0BAQEFAASCBKcwggSjAgEAAoIBAQD+V0jAG6ZnuTRg\nacWp/vSRDPaNTJdt79RsOmxTo5b3c6/K4Dm3gvmpNtqQ97BCNmERwcuBX7FDbHGn\nsXfHazbFV8nFRWVAo9JQv1JGBEI8CFAFkPIqOamA6eMnUvs2peLGq9lzEgRo+89r\nPQuRiP7NbpqQQYIzPFOJYmFfkeu/v/enNSRAz3ypGy3gnX50SmWyJNB6DuTt8bqg\n1BEceijXMYiaMK1dh4IFK1LaB75PHITkwRJCWrcHfb6jHmreM6+UilEbGtk3VpHJ\ng/pHS98ldNW0/NbwXYjpgPirInMpmRaFK+Uj8kvQqGo6BF74+R90D2RFFXr73q97\nnm5NR0ZBAgMBAAECggEAJUOgkxT6AoRuGholLcz/BCmEDhvErATReLHuoSp8ufCn\nNvA3RJ3Z+mLhDxBbMLhK7JEaQfBFRn2jAVDNHdilg7BjDZYnSZs2+0Gsyjlhgu4s\n20PrVyhvn0WlVGOiDtWrLjSLfYKMRt1t/GZLRZ1ux6aG2s/eRad3Dc/uOFRm2Ab7\nekV459qs9znprnf7zLLj7xL2JC9rW9vRbV/MlCYcXP+xVJv6ik+VIwahQc/6QEqi\nCmEvGiDBX8vHOJqWmmiMePc+wCyLeTCknXAAU7b3o78LKBLNVKbUE0U3sPbn8tv0\nKPAsq7FENWgi8VbuTAaFXCzwy4mCI6wArWOOZtV5CQKBgQD/Thw3KDwYHf+znokk\nkBn3XF44/edthaA7gS+D68AI3h2snA6cOnPGVLuCMaO9Je8XLxBjZEIWeoSvESOF\na+LCsGCGiwzeWx/4cR93/PWHgm4f5tMFmj5iGVwjiIjhOPvKzvhCdBtkKj35BhjQ\ncMG4ue5h+P4WB0qpKDUot6e3jwKBgQD/CICNnSVd/MRTKaq2cMgQAk127YdnwACE\n52iQtgOkgJ8Fhc2gkOrnLxVR2IH4TVwTnxorEshIqTP0a0XxGPh+XgMWPhBV42ie\n1dfnjo4idJ4fCJsJZIOyrLQVb9kNcMAWhpN3ST/K1o56jFTuYUT2JTEjxVaJV86d\n1JrQUYi9LwKBgGFwuXofxBfcUzyF1If867wqJ9gOqCZ36rjrTGxILSn1RFQd18Gu\n2YMn0c0WDw1hDgjGMLYOjN6xcjSzEOCaVZjC4oRXS9kN5HzZCA6uoDNRB6DrYzzv\nKsIcNbtmH//91LQKHFyYnd+z86U4u33Km1VauW3xL2DO9aLsMqXQupVnAoGBAJBV\nXXvH7fftL6bpM+YgmfkFdJXUBAfhj+mnlXQgrpsQ9+6GNUOkAG1qJiS15YiDL5Mj\nPgoWjSciK3cupty2BxxtVE3oPhJ9qx4JZDF2alZxrXNeyW9dZXNfbmObczm6D9wv\nuZGO8P14xBXzCbYHcqHjlpXp/vmnqhWE10ECg+KdAoGABJGjztPXcuA0lPxUZuFP\nM+qyfFh9JdcjkTTLAAsQ+in3F8dUWSC+w+Cib8U2nbmVqt6hIMriZcGhVE6Rbf/6\n1R49UABuYLcG7pYnSCSWCjikI3airR8VcSn3eBGBgTZhj6EFAbEwslNT1CyTpRMJ\n9/R+gvMHf69OXldyK7ZLVcA=\n-----END PRIVATE KEY-----\n",
  "client_email": "user-comment@farizio-portofolio.iam.gserviceaccount.com",
  "client_id": "110576582319133246018",
  "auth_uri": "https://accounts.google.com/o/oauth2/auth",
  "token_uri": "https://oauth2.googleapis.com/token",
  "auth_provider_x509_cert_url": "https://www.googleapis.com/oauth2/v1/certs",
  "client_x509_cert_url": "https://www.googleapis.com/robot/v1/metadata/x509/user-comment%40farizio-portofolio.iam.gserviceaccount.com"
}
