<svg width="100" height="100" viewBox="0 0 100 100" fill="none" xmlns="http://www.w3.org/2000/svg">
<path d="M49.9996 50C59.2079 50 66.6663 42.5417 66.6663 33.3334C66.6663 24.125 59.2079 16.6667 49.9996 16.6667C40.7913 16.6667 33.3329 24.125 33.3329 33.3334C33.3329 42.5417 40.7913 50 49.9996 50ZM49.9996 58.3333C38.8746 58.3333 16.6663 63.9167 16.6663 75V83.3333H83.3329V75C83.3329 63.9167 61.1246 58.3333 49.9996 58.3333Z" fill="#FFF853"/>
</svg>
