<svg width="360" height="255" viewBox="0 0 360 255" fill="none" xmlns="http://www.w3.org/2000/svg">
<path d="M243.544 125.429C244.429 163.018 214.197 192.84 177.064 191.039C163.623 190.398 150.736 185.431 140.283 176.861C136.681 173.912 137.381 168.12 141.611 166.203C151.711 161.627 168.282 159.478 193.186 160.325C215.825 161.094 229.679 140.417 237.397 123.994C238.85 120.901 243.456 121.875 243.54 125.299C243.544 125.344 243.544 125.385 243.544 125.429Z" fill="white"/>
<path d="M236.846 98.2318C231.991 88.4455 224.739 80.0787 215.782 73.928C206.825 67.7773 196.46 64.0473 185.674 63.093C146.653 59.6759 113.737 92.8225 116.937 132.291C117.683 141.521 120.409 150.475 124.926 158.531C127.828 163.715 134.725 164.846 139.178 160.964C148.978 152.449 165.9 146.223 190.54 148.95C203.83 150.419 213.734 145.97 221.289 139.245C220.394 137.587 219.745 136.135 219.154 134.802C217.67 131.491 216.491 128.867 212.571 125.388C212.176 125.822 211.836 126.302 211.557 126.82V126.844C207.874 133.449 201.883 142.221 192.462 142.221H191.581L192.027 141.452C195.892 134.833 202.231 129.301 210.882 125.043C211.618 124.65 211.669 124.281 211.686 124.161C211.821 123.136 210.077 121.496 208.54 120.061C207.65 119.261 206.813 118.404 206.033 117.494C204.282 126.406 197.724 134.01 187.847 138.493L186.792 138.971L187.168 137.864C189.6 130.647 194.885 124.455 203.803 118.366C204.603 117.771 204.982 117.078 204.904 116.316C204.796 115.225 203.711 113.988 202.262 113.295C201.829 113.237 200.812 113.852 200.021 114.662L199.028 115.885C193.108 123.146 186.397 131.419 176.551 131.419H175.635L176.128 130.637C181.386 122.279 189.688 116.1 199.504 113.237C199.99 113.062 200.451 112.824 200.876 112.529C201.052 112.42 201.214 112.314 201.403 112.212C201.005 111.808 200.63 111.381 200.261 110.961C198.389 108.825 197.22 107.704 195.162 109.444C186.749 116.439 177.693 123.228 167.383 123.228C166.984 123.228 166.582 123.228 166.18 123.198L165.183 123.146L165.819 122.367C173.462 112.98 185.079 110.096 196.342 107.304L196.602 107.24C195.325 105.531 193.733 105.247 191.753 106.327C180.68 111.924 167.353 113.654 150.995 111.614L149.359 111.408L150.829 110.657C162.994 104.414 177.585 102.336 191.925 104.806C192.499 104.773 193.067 104.668 193.615 104.492H193.655L193.216 104.065C191.327 102.213 189.516 100.439 187.299 99.7559C187.051 99.7562 186.804 99.7193 186.566 99.6466L186.502 99.6192L186.326 99.527C185.8 99.4484 185.267 99.4335 184.738 99.4825C172.938 100.825 158.24 102.5 145.683 96.4481L144.078 95.6553L147.119 95.3136C160.362 93.8374 174.053 92.3099 186.623 98.5257L186.944 98.5906C186.071 97.8296 185.068 97.2345 183.984 96.8342C181.467 95.9218 178.848 95.071 176.321 94.244C165.7 90.7858 154.719 87.208 147.187 78.3746L146.372 77.4144L147.616 77.534C160.997 78.8223 171.789 83.268 179.686 90.7448L181.484 92.2996C184.319 94.7532 187.002 97.0837 189.999 99.2809C190.222 98.5975 190.317 97.9824 190.023 97.5723C185.515 91.2266 182.21 85.6122 180.73 78.8462H180.693C180.355 76.5772 179.916 73.7478 180.693 71.1439L180.913 70.4126L181.494 70.9047C187.107 75.658 195.926 85.1372 191.986 95.2111C190.675 98.5941 191.526 101.184 194.838 103.754C195.338 102.619 195.737 101.246 195.304 99.8789H195.264C195.223 98.8538 195.223 97.8525 195.264 96.8274V96.5779V96.6087C195.602 89.6377 197.808 82.2566 202.14 73.7136L202.721 72.562L203.059 73.8059C204.13 77.5921 205.245 83.3398 204.482 89.2139C203.708 95.1871 201.177 99.8072 196.963 102.937C196.337 103.393 196.016 103.825 196 104.232C195.963 105.165 197.311 106.283 198.619 107.393C199.424 108.029 200.177 108.729 200.87 109.488L200.974 109.327C201.429 108.684 201.804 107.986 202.089 107.25C203.154 102.093 204.428 97.815 205.992 94.1757C207.976 89.6411 210.358 86.0189 213.338 83.0938L214.058 82.3796L214.183 83.4047C214.71 87.765 213.845 92.262 211.615 96.7761C209.746 100.556 206.884 104.342 203.34 107.728C202.032 109.389 201.937 110.018 201.988 110.226C202.539 111.641 203.715 112.731 204.958 113.879C205.519 114.399 206.094 114.932 206.614 115.502C208.209 112.888 209.456 110.004 210.669 107.205C212.875 102.1 215.156 96.8274 219.62 93.0241C219.775 92.8703 219.934 92.7199 220.093 92.5696L220.286 92.3885C220.498 92.1903 220.718 91.9921 220.938 91.8007L221.144 91.6196C221.38 91.4146 221.62 91.213 221.86 91.0114L222.62 90.3894L222.681 91.3736C223.181 99.5885 218.207 107.957 209.023 114.303C208.009 115.328 207.699 116.011 207.702 116.172C208.902 118.776 210.669 120.795 212.463 121.605C212.812 121.048 213.06 120.432 213.196 119.787V119.736C215.312 113.015 219.069 103.508 227.27 98.5291L228 98.0849L228.034 98.946C228.304 106.29 223.597 111.265 219.045 116.08C217.187 118.045 215.264 120.078 213.713 122.231C213.54 122.444 213.412 122.692 213.338 122.957C213.263 123.223 213.244 123.502 213.281 123.775C213.514 125.265 215.477 126.697 217.055 127.849C217.332 128.047 217.596 128.241 217.836 128.423H217.856C218.083 128.081 218.365 127.781 218.691 127.534C218.707 127.495 218.721 127.455 218.731 127.415L218.751 127.353C222.09 118.718 225.996 109.84 233.714 104.513L234.498 103.969V104.933C234.498 109.498 232.47 113.548 230.7 116.551L230.676 116.589C230.254 117.18 229.798 117.928 229.324 118.721C228.162 120.635 226.719 123.02 224.655 124.951C223.705 125.698 222.686 126.351 221.613 126.902C220.883 127.291 220.174 127.721 219.491 128.19C219.282 128.58 218.984 128.913 218.623 129.164C218.613 129.216 218.613 129.269 218.623 129.321C219.265 132.67 219.951 133.924 220.904 135.66C221.32 136.419 221.769 137.235 222.256 138.332C228.473 132.469 233.028 125.087 236.535 118.41C238.174 115.316 239.058 111.869 239.112 108.359C239.166 104.849 238.389 101.377 236.846 98.2318Z" fill="white"/>
</svg>
